{
    "description": "Location",
    "title": "Location",
    "version": "0.0.1",
    "type": "object",
    "properties": {
        "id": {
            "type": "string"
        },
        "names": {
            "$ref": "translation.json"
        },
        "codes": {
            "type": "object",
            "properties": {
                "zip": {
                    "type": "string"
                },
                "nis": {
                    "type": "string"
                }
            }
        },
        "coordinates": {
            "type": "object",
            "properties": {
                "lat": {
                    "type": "number"
                },
                "lon": {
                    "type": "number"
                }
            },
            "required": ["lat", "lon"]
        }
    },
    "required": ["id", "names", "codes", "coordinates"]
}