{
    "description": "Usage category lookup",
    "title": "Usage category",
    "version": "0.0.1",
    "type": "object",
    "properties": {
        "id": {
            "type": "string"
        },
        "name": {
            "$ref": "translation.json"
        },
        "externalId": {
            "$ref": "lookupExternalId.json"
        }
    },
    "required": ["id", "name", "externalId"]
}